lab6/myCpu/isim.log
ISim log file
Running: /home/wu/ise12.3/lab6/myCpu/pcpuTest_isim_beh.exe -gui -tclbatch isim.cmd -wdb /home/wu/ise12.3/lab6/myCpu/pcpuTest_isim_beh.wdb 
ISim M.70d (signature 0x61e1bd6e)
This is a Full version of ISim.
Time resolution is 1 ps
# onerror resume
# wave add /
# run 1000 ns
Simulator is doing circuit initialization process.
pc:idir            :regA :regB: regC :da:dd:  :w:regC1:gr1 :gr2:gr3 
Finished circuit initialization process.
xx:xxxxxxxxxxxxxxxx:xxxx:xxxx:xxxx:zz:zzzz:z:xxxx:xxxx:xxxx:xxxx
00:0000000000000000:0000:0000:0000:zz:zzzz:z:0000:0000:0000:0000
01:0001001000000000:0000:0000:0000:zz:zzzz:z:0000:0000:0000:0000
02:0001001100000001:0000:0000:0000:zz:zzzz:z:0000:0000:0000:0000
03:0000000000000000:0000:0001:0000:zz:zzzz:z:0000:0000:0000:0000
04:0000000000000000:0000:0000:0001:zz:zzzz:z:0011:0000:0000:0000
05:0000000000000000:0000:0000:0000:zz:zzzz:z:ffff:0000:0011:0000
06:0110100100100011:0000:0000:0000:zz:zzzz:z:0000:0000:0011:ffff
07:0111000100100011:0011:ffff:0000:zz:zzzz:z:0000:0000:0011:ffff
08:0111100100100011:0011:ffff:0011:zz:zzzz:z:0000:0000:0011:ffff
09:1000101100010010:0011:ffff:ffff:zz:zzzz:z:0011:0000:0011:ffff
0a:0000000000000000:0000:0011:ffee:zz:zzzz:z:ffff:0011:0011:ffff
0b:0000000000000000:0000:0000:0011:zz:zzzz:z:ffee:ffff:0011:ffff
0c:0000000000000000:0000:0000:0000:zz:zzzz:z:0011:ffee:0011:ffff
0d:0001101100000010:0000:0000:0000:zz:zzzz:z:0000:ffee:0011:0011
0e:0000100000000000:0000:0002:0000:zz:zzzz:z:0000:ffee:0011:0011
0f:0000100000000000:0000:0000:0002:zz:zzzz:z:0000:ffee:0011:0011
10:0000100000000000:0000:0000:0000:zz:zzzz:z:0002:ffee:0011:0011
11:0000100000000000:0000:0000:0000:zz:zzzz:z:0000:ffee:0011:0011
12:0000100000000000:0000:0000:0000:zz:zzzz:z:0000:ffee:0011:0011
